question,answer
"What is a pentagon?","A pentagon is a geometrical shape, which has five sides and five angles. The pentagon is one of the types of polygons. The sum of all the interior angles for a regular pentagon is 540 degrees."
"What is zero?","Zero is the integer denoted 0 that, when used as a counting number, means that no objects are present. It is the only integer (and, in fact, the only real number) that is neither negative nor positive. A number which is not zero is said to be nonzero."
"What is perimeter?","The perimeter of a shape is defined as the total distance around the shape. It is the length of the outline or boundary of any two-dimensional geometric shape."
"I want to know more about prime numbers?","A prime number (or a prime) is a natural number greater than 1 that is not a product of two smaller natural numbers. "
"Can you explain me binary numbers?","A Binary Number is made up of only 0s and 1s. 110100 is an example of binary number"
"What is a dozen?","A dozen is a grouping of twelve objects, shapes or numbers."
"What is meant by a circumference?","The meaning of circumference is the distance around a circle or any curved geometrical shape. It is the one-dimensional linear measurement of the boundary across any two-dimensional circular surface."
"How do you tell if a shape is a triangle?","A triangle is a closed, 2-dimensional shape with 3 sides, 3 angles, and 3 vertices. And sum of the interior angles is equal to 180 degrees."
"I don't know what a natural number is, can you explain to me please?","They are the numbers that we use when we are
counting or ordering. {1, 2, 3, 4, 5, 6, 7, 8, 9, 10, 11 ...}"
"What is the definition of power","In mathematics, power defines a base number raised to the exponent, where base number is the factor which is multiplied by itself and exponent denotes the number of times the same base number is multiplied."
