[
    {
        "subject": "Assignment Due: 2 days",
        "body": "There's an assignment coming up in two days.  Have you made a plan for getting it done?"
    },
    {
        "subject": "Assignment Due: 1 day",
        "body": "Your assignment is due tomorrow.  Remember to make time to get it done before the deadline."
    },
    {
        "subject": "New Grade Posted",
        "body": "Your instructor has posted grades for your assignment.  Would you like to check your score?"
    },
    {
        "subject": "Tutoring Appointment?",
        "body": "Your recent assignment received a low score.  find some tutoring that could be useful to raise your scores on future assignments.  If you are interested, you can make an appointment with this link.  www.nudgertutoring.com"
    },
    {
        "subject": "Great work!",
        "body": "Your exam score was in the top 10% of the class.  Excellent work!"
    },
    {
        "subject": "Exam Coming Up",
        "body": "Former students in this class found this resource useful to study.  Why don't you review it today to help you get a higher score?"
    },
    {
        "subject": "Missed Assignment",
        "body": "Whoops, it looks like you missed an assignment.  Why don't you try to submit it today for partial credit?"
    },
    {
        "subject": "Group Assignment Due Date Soon",
        "body": "Your group project is due in 1 week.  Have you connected with your group members and made a plan?"
    }
]
